<?xml version="1.0" encoding="UTF-8" standalone="no"?>
<svg
   xmlns:dc="http://purl.org/dc/elements/1.1/"
   xmlns:cc="http://creativecommons.org/ns#"
   xmlns:rdf="http://www.w3.org/1999/02/22-rdf-syntax-ns#"
   xmlns:svg="http://www.w3.org/2000/svg"
   xmlns="http://www.w3.org/2000/svg"
   xmlns:sodipodi="http://sodipodi.sourceforge.net/DTD/sodipodi-0.dtd"
   xmlns:inkscape="http://www.inkscape.org/namespaces/inkscape"
   version="1.1"
   id="svg1"
   width="16"
   height="16"
   viewBox="0 0 16 16"
   sodipodi:docname="bspline-symbolic.svg"
   inkscape:version="1.1-dev (1fceb22, 2019-12-30)">
  <metadata
     id="metadata10176">
    <rdf:RDF>
      <cc:Work
         rdf:about="">
        <dc:format>image/svg+xml</dc:format>
        <dc:type
           rdf:resource="http://purl.org/dc/dcmitype/StillImage" />
        <dc:title></dc:title>
      </cc:Work>
    </rdf:RDF>
  </metadata>
  <defs
     id="defs10174">
    <inkscape:path-effect
       effect="fillet_chamfer"
       id="path-effect10745"
       is_visible="true"
       lpeversion="1"
       satellites_param="F,0,0,1,0,1,0,1 @ F,0,0,1,0,1,0,1 @ F,0,0,1,0,1,0,1 @ F,0,0,1,0,1,0,1"
       unit="px"
       method="bezier"
       mode="F"
       radius="1"
       chamfer_steps="1"
       flexible="false"
       use_knot_distance="true"
       apply_no_radius="true"
       apply_with_radius="true"
       only_selected="false"
       hide_knots="false" />
  </defs>
  <style
     id="s0">.base { fill:#000000; }
.success { fill:#009909; }
.warning { fill:#FF1990; }
.error { fill:#00AAFF; }
.dark {  }
</style>
  <style
     id="s2">
@import '../../highlights.css';
</style>
  <sodipodi:namedview
     objecttolerance="10"
     gridtolerance="10"
     guidetolerance="10"
     id="namedview"
     showgrid="true"
     inkscape:zoom="29.079766"
     inkscape:cx="-5.7849961"
     inkscape:cy="8.5808896"
     inkscape:window-width="1858"
     inkscape:window-height="1177"
     inkscape:window-x="54"
     inkscape:window-y="-8"
     inkscape:window-maximized="1"
     inkscape:current-layer="g48628">
    <inkscape:grid
       type="xygrid"
       id="grid" />
  </sodipodi:namedview>
  <g
     transform="translate(-1009,-557.36218)"
     inkscape:label="00216"
     id="path-mode-bspline">
    <path
       inkscape:connector-curvature="0"
       id="rect48619"
       d="m 1009,557.36218 h 16 v 16 h -16 z"
       style="opacity:0;fill:none" />
    <g
       id="g48628"
       transform="matrix(1.395066,-1.366399,1.366399,1.395066,-404.6688,1807.641)">
      <path
         class="error"
         inkscape:connector-curvature="0"
         id="path6177-8-2"
         d="m 965.21289,49.990234 a 0.25607405,0.25607405 0 0 0 -0.17578,0.07617 l -4.50391,4.574219 A 0.25619918,0.25619918 0 1 0 960.89844,55 l 4.32422,-4.392578 4.39257,4.300781 a 0.25607405,0.25607405 0 1 0 0.35743,-0.365234 L 965.39844,50.0625 a 0.25607405,0.25607405 0 0 0 -0.18555,-0.07227 z"
         style="opacity:1" />
    </g>
  </g>
  <path
     style="opacity:1;fill:#000000;stroke-width:3.42779;stroke-linecap:round"
     d="M 3.0376795,13.00095 C 3.4378001,7.7411722 7.0089115,3.4625777 13.000816,3.0351101 13.551591,2.9958173 14,3.4477153 14,4 14,4.5522937 13.550532,4.9949284 13.002331,5.0593258 9.4531593,5.4762481 5.5411548,8.0935296 5.0511906,13.001674 4.9963503,13.551028 4.5522847,14 4,14 3.4477063,14 2.9957974,13.551512 3.0376795,13.00095 Z"
     id="path10741"
     inkscape:connector-curvature="0"
     sodipodi:nodetypes="ccccc"
     inkscape:path-effect="#path-effect10745"
     inkscape:original-d="M 3,14 C 3,8 7.0151976,3 14,3 V 5 C 10,5 5.0271468,7.9528255 5,14 Z" />
</svg>
