<?xml version="1.0" encoding="UTF-8" standalone="no"?>
<svg
   xmlns:dc="http://purl.org/dc/elements/1.1/"
   xmlns:cc="http://creativecommons.org/ns#"
   xmlns:rdf="http://www.w3.org/1999/02/22-rdf-syntax-ns#"
   xmlns:svg="http://www.w3.org/2000/svg"
   xmlns="http://www.w3.org/2000/svg"
   xmlns:sodipodi="http://sodipodi.sourceforge.net/DTD/sodipodi-0.dtd"
   xmlns:inkscape="http://www.inkscape.org/namespaces/inkscape"
   inkscape:version="1.0alpha2 (e9298ea62f, 2019-07-05, custom)"
   sodipodi:docname="color-management-symbolic.svg"
   viewBox="0 0 16 16"
   height="16"
   width="16"
   id="svg1"
   version="1.1">
<style id="s0">
   .base    { fill: #000000; }
   .success { fill: #009909; }
   .warning { fill: #FF1990; }
   .error   { fill: #00AAFF; }
   .dark    {  }
  </style>
  <style id="s2"> 
     @import '../../highlights.css'; 
  </style>
     
  
<metadata
     id="metadata2072">
    <rdf:RDF>
      <cc:Work
         rdf:about="">
        <dc:format>image/svg+xml</dc:format>
        <dc:type
           rdf:resource="http://purl.org/dc/dcmitype/StillImage" />
      </cc:Work>
    </rdf:RDF>
  </metadata>
  <defs
     id="defs2070" />
  <sodipodi:namedview
     inkscape:current-layer="svg1"
     inkscape:window-maximized="1"
     inkscape:window-y="27"
     inkscape:window-x="0"
     inkscape:window-height="704"
     inkscape:window-width="1360"
     inkscape:cy="8"
     inkscape:cx="8"
     inkscape:zoom="31.5625"
     showgrid="true"
     id="namedview"
     guidetolerance="10"
     gridtolerance="10"
     objecttolerance="10">
    <inkscape:grid
       id="grid"
       type="xygrid" />
  </sodipodi:namedview>
  <g
     id="color-management"
     inkscape:label="00071"
     transform="translate(-134.99275,-847.43152)">
    <g
       inkscape:label="preferences-color-management"
       id="g14507"
       transform="translate(99.94762,867.3622)">
      <path
         style="opacity:0;fill:none"
         d="m 35.045132,-19.9307 h 16 v 15.9999997 h -16 z"
         id="rect8585"
         inkscape:connector-curvature="0" />
      <path
         style="opacity:1"
         d="m 43.05952,-18.99286 c -2.20282,0 -3.99285,1.79004 -3.99285,3.99286 0,2.20283 1.79003,3.99286 3.99285,3.99286 2.20283,0 3.99286,-1.79003 3.99286,-3.99286 0,-2.20282 -1.79003,-3.99286 -3.99286,-3.99286 z m 0,1.05238 C 44.68588,-17.94048 46,-16.62635 46,-15 c 0,1.62635 -1.31412,2.94048 -2.94048,2.94048 -1.62635,0 -2.94047,-1.31413 -2.94047,-2.94048 0,-1.62635 1.31412,-2.94048 2.94047,-2.94048 z"
         id="path8587"
         inkscape:connector-curvature="0" />
      <path
         style="opacity:1"
         d="m 39.04533,-11.92358 c -2.20283,0 -3.99286,1.79004 -3.99286,3.992859 0,2.202825 1.79003,3.992858 3.99286,3.992858 2.20282,0 3.99285,-1.790033 3.99285,-3.992858 0,-2.202819 -1.79003,-3.992859 -3.99285,-3.992859 z m 0,1.05238 c 1.62635,0 2.94047,1.314127 2.94047,2.940479 0,1.626353 -1.31412,2.940477 -2.94047,2.940477 -1.62636,0 -2.94048,-1.314124 -2.94048,-2.940477 0,-1.626352 1.31412,-2.940479 2.94048,-2.940479 z"
         id="path8591"
         inkscape:connector-curvature="0" />
      <path
         style="opacity:1"
         d="m 47.04448,-11.92358 c -2.20283,0 -3.99286,1.79004 -3.99286,3.992859 0,2.202825 1.79003,3.992858 3.99286,3.992858 2.20282,0 3.99285,-1.790033 3.99285,-3.992858 0,-2.202819 -1.79003,-3.992859 -3.99285,-3.992859 z m 0,1.05238 c 1.62635,0 2.94047,1.314127 2.94047,2.940479 0,1.626353 -1.31412,2.940477 -2.94047,2.940477 -1.62636,0 -2.94048,-1.314124 -2.94048,-2.940477 0,-1.626352 1.31412,-2.940479 2.94048,-2.940479 z"
         id="path8593"
         inkscape:connector-curvature="0" />
      <path
         class="success"
         d="m 41,-8.000001 a 2,2 0 0 1 -2,2 2,2 0 0 1 -2,-2 2,2 0 0 1 2,-2 2,2 0 0 1 2,2 z"
         id="path14494"
         inkscape:connector-curvature="0" />
      <path
         class="warning"
         style="opacity:1"
         d="m 49,-8 a 2,2 0 0 1 -2,2 2,2 0 0 1 -2,-2 2,2 0 0 1 2,-2 2,2 0 0 1 2,2 z"
         id="path14496"
         inkscape:connector-curvature="0" />
    </g>
  </g>
</svg>
