<?xml version="1.0" encoding="UTF-8" standalone="no"?>
<svg
   xmlns:dc="http://purl.org/dc/elements/1.1/"
   xmlns:cc="http://creativecommons.org/ns#"
   xmlns:rdf="http://www.w3.org/1999/02/22-rdf-syntax-ns#"
   xmlns:svg="http://www.w3.org/2000/svg"
   xmlns="http://www.w3.org/2000/svg"
   xmlns:sodipodi="http://sodipodi.sourceforge.net/DTD/sodipodi-0.dtd"
   xmlns:inkscape="http://www.inkscape.org/namespaces/inkscape"
   inkscape:version="1.0beta0 (1d85f8e, 2019-09-11)"
   sodipodi:docname="distribute-randomize-symbolic.svg"
   viewBox="0 0 16 16"
   height="16"
   width="16"
   id="svg1"
   version="1.1">
<style id="s0">
   .base    { fill: #000000; }
   .success { fill: #009909; }
   .warning { fill: #FF1990; }
   .error   { fill: #00AAFF; }
   .dark    {  }
  </style>
  <style id="s2"> 
     @import '../../highlights.css'; 
  </style>
  
  <metadata
     id="metadata15">
    <rdf:RDF>
      <cc:Work
         rdf:about="">
        <dc:format>image/svg+xml</dc:format>
        <dc:type
           rdf:resource="http://purl.org/dc/dcmitype/StillImage" />
      </cc:Work>
    </rdf:RDF>
  </metadata>
  <defs
     id="defs13" />
  <sodipodi:namedview
     inkscape:snap-center="true"
     inkscape:current-layer="distribute-randomize"
     inkscape:window-maximized="1"
     inkscape:window-y="-8"
     inkscape:window-x="54"
     inkscape:window-height="1177"
     inkscape:window-width="1858"
     inkscape:cy="8.0628158"
     inkscape:cx="6.9568445"
     inkscape:zoom="53.536488"
     showgrid="true"
     id="namedview"
     guidetolerance="10"
     gridtolerance="10"
     objecttolerance="10">
    <inkscape:grid
       id="grid"
       type="xygrid" />
  </sodipodi:namedview>
  <g
     id="distribute-randomize"
     inkscape:label="00289"
     transform="matrix(0.666667,0,0,0.666667,-696,-548.90812)">
    <path
       style="opacity:0;fill:none"
       d="m 1044,823.36218 h 24 v 24 h -24 z"
       id="rect19031"
       inkscape:connector-curvature="0" />
    <path
       style="opacity:1;stroke-width:1.06066"
       d="m 1049.9995,823.36177 h 6 v 4.5 h -6 z"
       id="path4069"
       inkscape:connector-curvature="0" />
    <path
       style="opacity:1;stroke-width:1.06066"
       d="m 1045.5296,830.85768 h 6 v 4.5 h -6 z"
       id="path4071"
       inkscape:connector-curvature="0" />
    <path
       style="opacity:1;stroke-width:1.06066"
       d="m 1058.9995,824.86177 h 6 v 4.5 h -6 z"
       id="path4073"
       inkscape:connector-curvature="0" />
    <path
       style="opacity:1;stroke-width:1.06066"
       d="m 1054.4995,832.36176 h 6 v 4.5 h -6 z"
       id="path4075"
       inkscape:connector-curvature="0" />
    <path
       style="opacity:1;stroke-width:1.06066"
       d="m 1043.9995,836.86176 h 6 v 4.5 h -6 z"
       id="path4077"
       inkscape:connector-curvature="0" />
    <path
       style="opacity:1;stroke-width:1.06066"
       d="m 1052.9995,841.36176 h 6 v 4.5 h -6 z"
       id="path4079"
       inkscape:connector-curvature="0" />
    <path
       style="opacity:1;stroke-width:1.06066"
       d="m 1061.9995,830.86176 h 6 v 4.5 h -6 z"
       id="path4081"
       inkscape:connector-curvature="0" />
    <path
       inkscape:connector-curvature="0"
       id="path4055"
       d="m 1060.4995,838.36176 h 6 v 4.5 h -6 z"
       style="opacity:1;stroke-width:1.06066" />
  </g>
</svg>
