<?xml version="1.0" encoding="UTF-8" standalone="no"?>
<svg
   xmlns:dc="http://purl.org/dc/elements/1.1/"
   xmlns:cc="http://creativecommons.org/ns#"
   xmlns:rdf="http://www.w3.org/1999/02/22-rdf-syntax-ns#"
   xmlns:svg="http://www.w3.org/2000/svg"
   xmlns="http://www.w3.org/2000/svg"
   xmlns:sodipodi="http://sodipodi.sourceforge.net/DTD/sodipodi-0.dtd"
   xmlns:inkscape="http://www.inkscape.org/namespaces/inkscape"
   inkscape:version="1.0beta2 (7cf281c, 2019-12-21)"
   sodipodi:docname="draw-geometry-line-segment-symbolic.svg"
   viewBox="0 0 16 16"
   height="16"
   width="16"
   id="svg1"
   version="1.1">
  <metadata
     id="metadata15911">
    <rdf:RDF>
      <cc:Work
         rdf:about="">
        <dc:format>image/svg+xml</dc:format>
        <dc:type
           rdf:resource="http://purl.org/dc/dcmitype/StillImage" />
      </cc:Work>
    </rdf:RDF>
  </metadata>
  <defs
     id="defs15909" />
  <style
     id="s0">.base { fill:#000000; }
.success { fill:#009909; }
.warning { fill:#FF1990; }
.error { fill:#00AAFF; }
.dark {  }
</style>
  <style
     id="s2">
@import '../../highlights.css';
</style>
  <sodipodi:namedview
     inkscape:current-layer="draw-geometry-line-segment"
     inkscape:window-maximized="1"
     inkscape:window-y="-6"
     inkscape:window-x="65"
     inkscape:window-height="890"
     inkscape:window-width="1296"
     inkscape:cy="8"
     inkscape:cx="8"
     inkscape:zoom="41.125"
     showgrid="true"
     id="namedview"
     guidetolerance="10"
     gridtolerance="10"
     objecttolerance="10">
    <inkscape:grid
       id="grid"
       type="xygrid" />
  </sodipodi:namedview>
  <g
     id="draw-geometry-line-segment"
     inkscape:label="00221"
     transform="matrix(0.99791,0,0,0.999699,-496.92968,-589.17982)">
    <path
       style="opacity:0;fill:none"
       d="m 498,589.36218 h 16 v 16 h -16 z"
       id="rect4420-5"
       inkscape:connector-curvature="0" />
    <path
       style="opacity:1;stroke-linecap:round"
       d="m 513.45312,589.35742 a 0.54283223,0.54283223 0 0 0 -0.375,0.1582 l -14.93945,14.57618 a 0.54283223,0.54283223 0 1 0 0.75781,0.77734 l 14.93946,-14.57617 a 0.54283223,0.54283223 0 0 0 -0.38282,-0.93555 z"
       id="path4418-8"
       inkscape:connector-curvature="0" />
    <path
       class="success"
       style="opacity:1"
       d="m 508,591.36218 h 4 v 4 h -4 z"
       id="use5845"
       inkscape:connector-curvature="0" />
    <path
       class="success"
       style="opacity:1"
       d="m 501,598.36218 h 4 v 4 h -4 z"
       id="rect25416"
       inkscape:connector-curvature="0" />
  </g>
</svg>
