<?xml version="1.0" encoding="UTF-8" standalone="no"?>
<svg
   xmlns:dc="http://purl.org/dc/elements/1.1/"
   xmlns:cc="http://creativecommons.org/ns#"
   xmlns:rdf="http://www.w3.org/1999/02/22-rdf-syntax-ns#"
   xmlns:svg="http://www.w3.org/2000/svg"
   xmlns="http://www.w3.org/2000/svg"
   xmlns:sodipodi="http://sodipodi.sourceforge.net/DTD/sodipodi-0.dtd"
   xmlns:inkscape="http://www.inkscape.org/namespaces/inkscape"
   inkscape:version="1.1-dev (1fceb22, 2019-12-30)"
   sodipodi:docname="draw-ellipse-arc-symbolic.svg"
   viewBox="0 0 16 16"
   height="16"
   width="16"
   id="svg1"
   version="1.1">
  <metadata
     id="metadata9854">
    <rdf:RDF>
      <cc:Work
         rdf:about="">
        <dc:format>image/svg+xml</dc:format>
        <dc:type
           rdf:resource="http://purl.org/dc/dcmitype/StillImage" />
      </cc:Work>
    </rdf:RDF>
  </metadata>
  <defs
     id="defs9852" />
  <style
     id="s0">
.base { fill:#000000; }
.success { fill:#009909; }
.warning { fill:#FF1990; }
.error { fill:#00AAFF; }
.dark { }
</style>
  <style
     id="s2">
@import '../../highlights.css';
</style>
  <sodipodi:namedview
     inkscape:current-layer="svg1"
     inkscape:window-maximized="1"
     inkscape:window-y="-8"
     inkscape:window-x="54"
     inkscape:window-height="1177"
     inkscape:window-width="1858"
     inkscape:cy="8"
     inkscape:cx="8"
     inkscape:zoom="60.1875"
     showgrid="true"
     id="namedview"
     guidetolerance="10"
     gridtolerance="10"
     objecttolerance="10">
    <inkscape:grid
       id="grid"
       type="xygrid" />
  </sodipodi:namedview>
  <g
     id="draw-ellipse-arc"
     inkscape:label="00172"
     transform="translate(-409,-651.36218)">
    <path
       style="opacity:0;fill:none"
       d="m 409,651.36218 h 16 v 16 h -16 z"
       id="rect19892"
       inkscape:connector-curvature="0" />
    <path
       id="path9873"
       transform="translate(0,512.3622)"
       d="m 414,142 c -2.787,1.5809 -3.8061,5.0432 -2.3125,7.8437 1.5379,2.8838 5.1585,3.9798 8.0937,2.4688 2.9353,-1.511 4.0692,-5.0537 2.5313,-7.9375 l -1.75,0.875 c 0.9567,1.9403 0.2084,4.2716 -1.7188,5.2812 -1.9567,1.0253 -4.3497,0.2692 -5.375,-1.6875 -0.9857,-1.8811 -0.3224,-4.1636 1.4688,-5.25 z"
       style="opacity:1"
       inkscape:connector-curvature="0" />
  </g>
</svg>
