<?xml version="1.0" encoding="UTF-8" standalone="no"?>
<svg
   xmlns:dc="http://purl.org/dc/elements/1.1/"
   xmlns:cc="http://creativecommons.org/ns#"
   xmlns:rdf="http://www.w3.org/1999/02/22-rdf-syntax-ns#"
   xmlns:svg="http://www.w3.org/2000/svg"
   xmlns="http://www.w3.org/2000/svg"
   xmlns:sodipodi="http://sodipodi.sourceforge.net/DTD/sodipodi-0.dtd"
   xmlns:inkscape="http://www.inkscape.org/namespaces/inkscape"
   inkscape:version="1.0beta2 (7cf281c, 2019-12-21)"
   sodipodi:docname="draw-geometry-inactive-symbolic.svg"
   viewBox="0 0 16 16"
   height="16"
   width="16"
   id="svg1"
   version="1.1">
  <metadata
     id="metadata14184">
    <rdf:RDF>
      <cc:Work
         rdf:about="">
        <dc:format>image/svg+xml</dc:format>
        <dc:type
           rdf:resource="http://purl.org/dc/dcmitype/StillImage" />
      </cc:Work>
    </rdf:RDF>
  </metadata>
  <defs
     id="defs14182" />
  <style
     id="s0">
.base { fill:#000000; }
.success { fill:#009909; }
.warning { fill:#FF1990; }
.error { fill:#00AAFF; }
.dark { }
</style>
  <style
     id="s2">
@import '../../highlights.css';
</style>
  <sodipodi:namedview
     inkscape:current-layer="svg1"
     inkscape:window-maximized="1"
     inkscape:window-y="-6"
     inkscape:window-x="65"
     inkscape:window-height="890"
     inkscape:window-width="1296"
     inkscape:cy="8"
     inkscape:cx="8"
     inkscape:zoom="41.125"
     showgrid="true"
     id="namedview"
     guidetolerance="10"
     gridtolerance="10"
     objecttolerance="10">
    <inkscape:grid
       id="grid"
       type="xygrid" />
  </sodipodi:namedview>
  <g
     id="draw-geometry-inactive"
     inkscape:label="00220"
     transform="translate(-468,-589.36218)">
    <path
       style="opacity:0;fill:none"
       d="m 468,589.36218 h 16 v 16 h -16 z"
       id="rect5112"
       inkscape:connector-curvature="0" />
    <path
       style="opacity:1;stroke-linecap:round"
       d="m 480.81445,590.3418 a 2.0033355,2.0033355 0 0 0 -1.3789,0.60156 l -10.06836,9.99414 a 2.0033355,2.0033355 0 1 0 2.82226,2.84375 l 10.06836,-9.99414 a 2.0033355,2.0033355 0 0 0 -1.44336,-3.44531 z"
       id="path6027"
       inkscape:connector-curvature="0" />
    <path
       style="opacity:1;stroke-linecap:round"
       d="m 470.54102,590.48828 a 2.0033355,2.0033355 0 0 0 -1.28125,3.48438 l 10.36914,9.70312 a 2.0033355,2.0033355 0 1 0 2.73632,-2.92383 l -10.36914,-9.70507 a 2.0033355,2.0033355 0 0 0 -1.45507,-0.5586 z"
       id="path6027-1"
       inkscape:connector-curvature="0" />
  </g>
</svg>
