<?xml version="1.0" encoding="UTF-8" standalone="no"?>
<svg
   xmlns:dc="http://purl.org/dc/elements/1.1/"
   xmlns:cc="http://creativecommons.org/ns#"
   xmlns:rdf="http://www.w3.org/1999/02/22-rdf-syntax-ns#"
   xmlns:svg="http://www.w3.org/2000/svg"
   xmlns="http://www.w3.org/2000/svg"
   xmlns:sodipodi="http://sodipodi.sourceforge.net/DTD/sodipodi-0.dtd"
   xmlns:inkscape="http://www.inkscape.org/namespaces/inkscape"
   inkscape:version="1.1-dev (1fceb22ce1, 2019-12-30, custom)"
   sodipodi:docname="envelope-symbolic.svg"
   viewBox="0 0 16 16"
   height="16"
   width="16"
   id="svg1"
   version="1.1">
  <defs
     id="defs3166" />
  <style
     id="s0">.base { fill:#000000; }
.success { fill:#009909; }
.warning { fill:#FF1990; }
.error { fill:#00AAFF; }
.dark {  }
</style>
  <style
     id="s2">
@import '../../highlights.css';
</style>
  <sodipodi:namedview
     inkscape:current-layer="layercompo"
     inkscape:window-maximized="1"
     inkscape:window-height="1376"
     inkscape:window-width="2560"
     inkscape:window-y="27"
     inkscape:window-x="0"
     inkscape:cy="8.9906751"
     inkscape:cx="5.9561449"
     inkscape:zoom="27.166187"
     showgrid="true"
     id="namedview"
     guidetolerance="10"
     gridtolerance="10"
     objecttolerance="10">
    <inkscape:grid
       id="grid"
       type="xygrid" />
  </sodipodi:namedview>
  <metadata
     id="metadata1906">
    <rdf:RDF>
      <cc:Work
         rdf:about="">
        <dc:format>image/svg+xml</dc:format>
        <dc:type
           rdf:resource="http://purl.org/dc/dcmitype/StillImage" />
        <cc:license
           rdf:resource="http://creativecommons.org/publicdomain/zero/1.0/" />
        <dc:title></dc:title>
        <dc:date>13 Jan 2019</dc:date>
        <dc:creator>
          <cc:Agent>
            <dc:title>Ramón Miranda</dc:title>
          </cc:Agent>
        </dc:creator>
        <dc:rights>
          <cc:Agent>
            <dc:title>see the license tab</dc:title>
          </cc:Agent>
        </dc:rights>
        <dc:subject>
          <rdf:Bag>
            <rdf:li>icon ui</rdf:li>
          </rdf:Bag>
        </dc:subject>
        <dc:description>This is a contribution with Inkscape Project from
Ramon Miranda www.ramonmiranda.com (design and SVG file)
Jabiertxo (SVG stuff to integrate them in UI)</dc:description>
        <dc:publisher>
          <cc:Agent>
            <dc:title />
          </cc:Agent>
        </dc:publisher>
        <dc:identifier />
        <dc:source />
        <dc:relation />
        <dc:language>-</dc:language>
        <dc:coverage />
        <dc:contributor>
          <cc:Agent>
            <dc:title>Ramon Miranda
Jabier Arraiza</dc:title>
          </cc:Agent>
        </dc:contributor>
      </cc:Work>
      <cc:License
         rdf:about="http://creativecommons.org/publicdomain/zero/1.0/">
        <cc:permits
           rdf:resource="http://creativecommons.org/ns#Reproduction" />
        <cc:permits
           rdf:resource="http://creativecommons.org/ns#Distribution" />
        <cc:permits
           rdf:resource="http://creativecommons.org/ns#DerivativeWorks" />
      </cc:License>
    </rdf:RDF>
  </metadata>
  <g
     inkscape:label="envelope"
     id="layercompo"
     inkscape:groupmode="layer">
    <path
       class="error"
       id="path3172"
       d="M 9.1849541,2.5637389 C 8.3983815,3.8105197 7.4336497,5.727007 6.8677885,6.6278915 L 4.6872811,7.237286 v 0.4870687 c 0,0.1355709 -0.1091467,0.2447123 -0.2447123,0.2447123 H 3.8326724 L 5.710132,9.7461449 4.2394471,14.670178 7.6048126,12.25404 10.020455,14.657741 9.9330473,10.685823 12.080552,8.4212092 9.4780094,7.2086081 C 9.4753184,5.5499261 9.4485148,3.9930849 9.1850075,2.5637389 Z"
       style="" />
    <path
       style="opacity:0;fill:none"
       d="M 0,0 H 16 V 16 H 0 Z"
       id="rect22048" />
    <path
       style="opacity:1;"
       d="m 12.554393,0.44327421 c -0.395894,0 -0.721647,0.3271738 -0.721647,0.72306759 0,0.3958951 0.325753,0.7216749 0.721647,0.7216749 0.395895,0 0.723069,-0.3257798 0.723069,-0.7216749 0,-0.39589379 -0.327174,-0.72306759 -0.723069,-0.72306759 z M 5.7186388,1.2110163 c -0.3958941,0 -0.7216739,0.3252673 -0.7216739,0.7211893 0,0.3958668 0.3257798,0.7235263 0.7216739,0.7235263 0.3958941,0 0.7230678,-0.3276595 0.7230678,-0.7235263 0,-0.3958951 -0.3271737,-0.7211893 -0.7230678,-0.7211893 z m 4.2302719,0.6177568 v 0 C 8.5397972,1.8965728 7.3648032,2.7026898 6.3025479,3.5739181 5.3764209,4.3335038 4.5219464,5.1474408 3.6970651,5.6223072 H 3.1023378 c -0.2625348,0 -0.4814122,0.2193537 -0.4814122,0.4818804 v 1.485172 c 0,0.11578 0.044603,0.2217635 0.1147036,0.3055732 -0.010764,0.024555 -0.019779,0.047927 -0.031027,0.072845 -0.3360137,0.7437949 -0.7452346,1.5498811 -0.8866679,2.3582082 -0.1462448,0.771447 -0.076263,1.485774 0.1847502,2.242086 a 0.2407334,0.2407334 0 0 0 0.00269,0.0036 c 0.3365264,0.926702 1.0488124,1.560808 1.2063877,2.160732 a 0.2407334,0.2407334 0 0 0 0.2486963,0.17771 c 1.6783929,-0.115713 4.3906613,-0.105029 5.9580065,-0.09402 a 0.2407334,0.2407334 0 0 0 0.0027,0 c 0.623584,0 1.159996,-0.0094 1.785585,-0.02312 0.700263,-0.0113 1.421046,-0.0027 2.16075,0.03525 a 0.2407334,0.2407334 0 0 0 0.220478,-0.362478 C 13.023186,13.502398 12.65774,12.843223 12.459662,12.21614 a 0.2407334,0.2407334 0 0 0 0,-0.0054 c -0.207186,-0.618404 -0.303657,-1.280637 -0.259531,-2.036607 v -0.0027 c 4.4e-5,0 -2.7e-5,0 0,-0.0027 0.04856,-0.6974851 0.220217,-1.5983615 0.515288,-2.4254185 0.06196,-0.1737884 0.132141,-0.3409584 0.205441,-0.5049274 h 1.212476 c 0.262544,0 0.481422,-0.2188774 0.481422,-0.4814216 V 5.2718832 c 0,-0.2625617 -0.218878,-0.481898 -0.481422,-0.481898 H 13.618539 C 13.321958,4.2507961 12.986385,3.6233907 12.510916,3.0504968 a 0.2407334,0.2407334 0 0 0 -0.0027,-0.00538 0.2407334,0.2407334 0 0 0 -0.03193,-0.051264 0.2407334,0.2407334 0 0 0 -0.0036,-0.00363 0.2407334,0.2407334 0 0 0 -0.0036,-0.00363 C 11.82027,2.2413362 10.915086,1.7851118 9.9510645,1.8262974 a 0.2407334,0.2407334 0 0 0 -0.0027,0 z m 0.021673,0.4804785 c 0.7980213,-0.034082 1.5648553,0.343422 2.1320923,0.9929312 a 0.2407334,0.2407334 0 0 0 0.0027,0.00269 c 0,0 0,0 0.0027,0.00269 0.397332,0.4642369 0.688879,0.9885893 0.960478,1.4870328 h -0.393511 c -0.262527,0 -0.481422,0.2193537 -0.481422,0.4818993 v 1.4851437 c 0,0.1733391 0.09604,0.3265092 0.236493,0.4113804 -0.05989,0.1345538 -0.116843,0.2715362 -0.167368,0.4132399 -0.312614,0.8763089 -0.491772,1.80998 -0.543488,2.5570591 a 0.2407334,0.2407334 0 0 0 0,0.0027 c -0.04811,0.815204 0.05755,1.545422 0.283957,2.220919 0.18537,0.585411 0.556445,1.231314 0.986358,1.977861 -0.607595,-0.02266 -1.211944,-0.03804 -1.791213,-0.02869 -0.625634,0.01348 -1.158125,0.02266 -1.776664,0.02168 -1.5305586,-0.01076 -4.1249804,-0.0152 -5.8442441,0.09402 C 3.3083159,13.706362 2.7175996,13.11989 2.4594605,12.413054 2.2190646,11.71655 2.1604964,11.109494 2.2925516,10.415913 a 0.2407334,0.2407334 0 0 0 0,-0.0036 C 2.4154762,9.7097579 2.803406,8.9271317 3.1453897,8.1702532 c 0.014652,-0.032279 0.026345,-0.063844 0.039921,-0.095921 h 1.3779641 c 0.2625353,0 0.4814215,-0.2193363 0.4814215,-0.4818804 v -1.485172 c 0,-0.2625173 -0.2188862,-0.4818805 -0.4814215,-0.4818805 H 4.5450163 C 5.2355948,5.1376685 5.909024,4.5235808 6.6103118,3.9483955 7.6491598,3.0963567 8.7357217,2.3719948 9.9722423,2.3118712 Z m 2.7027983,2.9656132 h 1.458852 V 6.7600179 H 12.673382 Z M 3.1028598,6.104637 H 4.5616749 V 7.5898184 H 3.1028598 Z"
       id="path9610" />
    <path
       id="path3170"
       d="m 5.3765107,2.277409 v 0 a 0.24474398,0.24474398 0 0 0 -0.095589,0.01807 0.24474398,0.24474398 0 0 0 -0.021492,0.010495 0.24474398,0.24474398 0 0 0 -0.022032,0.013051 0.24474398,0.24474398 0 0 0 -0.017626,0.014383 0.24474398,0.24474398 0 0 0 -0.034441,0.036328 0.24474398,0.24474398 0 0 0 -0.014387,0.017626 0.24474398,0.24474398 0 0 0 -0.013038,0.022039 0.24474398,0.24474398 0 0 0 -0.0027,0.00363 L 3.5492232,5.7138884 a 0.24474398,0.24474398 0 0 0 -0.00901,0.02356 0.24474398,0.24474398 0 0 0 -0.00807,0.021488 0.24474398,0.24474398 0 0 0 -0.00713,0.048734 0.24474398,0.24474398 0 0 0 0.016092,0.095611 0.24474398,0.24474398 0 0 0 0.011033,0.023923 0.24474398,0.24474398 0 0 0 0.010495,0.021488 0.24474398,0.24474398 0 0 0 0.031027,0.037768 0.24474398,0.24474398 0 0 0 0.017626,0.016186 0.24474398,0.24474398 0 0 0 0.01807,0.016186 0.24474398,0.24474398 0 0 0 0.043527,0.02356 0.24474398,0.24474398 0 0 0 0.04685,0.014922 0.24474398,0.24474398 0 0 0 0.072119,0.00363 0.24474398,0.24474398 0 0 0 0.025363,-0.00269 0.24474398,0.24474398 0 0 0 0.02356,-0.00807 0.24474398,0.24474398 0 0 0 0.045411,-0.01807 0.24474398,0.24474398 0 0 0 0.019604,-0.012513 0.24474398,0.24474398 0 0 0 0.083179,-0.094145 L 5.5949355,2.6250721 a 0.24474398,0.24474398 0 0 0 0.00908,-0.021488 0.24474398,0.24474398 0 0 0 0.0081,-0.02356 0.24474398,0.24474398 0 0 0 0.0054,-0.074097 0.24474398,0.24474398 0 0 0 -0.0027,-0.023923 0.24474398,0.24474398 0 0 0 -0.0063,-0.02356 0.24474398,0.24474398 0 0 0 -0.0081,-0.02356 0.24474398,0.24474398 0 0 0 -0.010522,-0.02356 0.24474398,0.24474398 0 0 0 -0.01106,-0.019967 0.24474398,0.24474398 0 0 0 -0.014387,-0.019604 0.24474398,0.24474398 0 0 0 -0.034441,-0.036328 0.24474398,0.24474398 0 0 0 -0.039657,-0.028686 0.24474398,0.24474398 0 0 0 -0.021492,-0.011033 0.24474398,0.24474398 0 0 0 -0.047301,-0.014383 0.24474398,0.24474398 0 0 0 -0.04829,-0.00632 z"
       style="" />
    <path
       id="path3161"
       d="m 12.752526,1.5786385 a 0.24474398,0.24474398 0 0 0 -0.02536,0.00269 0.24474398,0.24474398 0 0 0 -0.04685,0.011033 0.24474398,0.24474398 0 0 0 -0.04343,0.021488 0.24474398,0.24474398 0 0 0 -0.02149,0.014383 0.24474398,0.24474398 0 0 0 -0.03633,0.032548 0.24474398,0.24474398 0 0 0 -0.0268,0.039652 0.24474398,0.24474398 0 0 0 -0.01292,0.022039 0.24474398,0.24474398 0 0 0 -0.0091,0.021488 0.24474398,0.24474398 0 0 0 -0.0063,0.025269 0.24474398,0.24474398 0 0 0 -0.0054,0.072119 0.24474398,0.24474398 0 0 0 0.0036,0.027246 l 0.648578,3.1828084 a 0.24474398,0.24474398 0 0 0 0.01438,0.04685 0.24474398,0.24474398 0 0 0 0.01103,0.022039 0.24474398,0.24474398 0 0 0 0.01438,0.019604 0.24474398,0.24474398 0 0 0 0.01438,0.020048 0.24474398,0.24474398 0 0 0 0.07797,0.059794 0.24474398,0.24474398 0 0 0 0.02149,0.00901 0.24474398,0.24474398 0 0 0 0.02356,0.00713 0.24474398,0.24474398 0 0 0 0.02356,0.00538 0.24474398,0.24474398 0 0 0 0.02536,0.00269 0.24474398,0.24474398 0 0 0 0.07258,-0.00538 0.24474398,0.24474398 0 0 0 0.06645,-0.028686 0.24474398,0.24474398 0 0 0 0.02204,-0.012917 0.24474398,0.24474398 0 0 0 0.06304,-0.074097 0.24474398,0.24474398 0 0 0 0.01292,-0.021488 0.24474398,0.24474398 0 0 0 0.0091,-0.021488 0.24474398,0.24474398 0 0 0 0.0071,-0.1247545 L 13.002037,1.7723443 a 0.24474398,0.24474398 0 0 0 -0.0081,-0.024004 0.24474398,0.24474398 0 0 0 -0.03255,-0.06492 0.24474398,0.24474398 0 0 0 -0.09223,-0.079317 0.24474398,0.24474398 0 0 0 -0.117099,-0.02356 z"
       style="" />
  </g>
</svg>
