<?xml version="1.0" encoding="UTF-8" standalone="no"?>
<svg
   xmlns:dc="http://purl.org/dc/elements/1.1/"
   xmlns:cc="http://creativecommons.org/ns#"
   xmlns:rdf="http://www.w3.org/1999/02/22-rdf-syntax-ns#"
   xmlns:svg="http://www.w3.org/2000/svg"
   xmlns="http://www.w3.org/2000/svg"
   xmlns:sodipodi="http://sodipodi.sourceforge.net/DTD/sodipodi-0.dtd"
   xmlns:inkscape="http://www.inkscape.org/namespaces/inkscape"
   inkscape:version="1.0beta2 (7cf281c, 2019-12-21)"
   sodipodi:docname="format-indent-more-symbolic.svg"
   viewBox="0 0 16 16"
   height="16"
   width="16"
   id="svg1"
   version="1.1">
  <metadata
     id="metadata7710">
    <rdf:RDF>
      <cc:Work
         rdf:about="">
        <dc:format>image/svg+xml</dc:format>
        <dc:type
           rdf:resource="http://purl.org/dc/dcmitype/StillImage" />
      </cc:Work>
    </rdf:RDF>
  </metadata>
  <defs
     id="defs7708" />
  <style
     id="s0">.base { fill:#000000; }
.success { fill:#009909; }
.warning { fill:#FF1990; }
.error { fill:#00AAFF; }
.dark {  }
</style>
  <style
     id="s2">
@import '../../highlights.css';
</style>
  <sodipodi:namedview
     inkscape:current-layer="svg1"
     inkscape:window-maximized="1"
     inkscape:window-y="-6"
     inkscape:window-x="65"
     inkscape:window-height="890"
     inkscape:window-width="1296"
     inkscape:cy="8"
     inkscape:cx="8"
     inkscape:zoom="41.125"
     showgrid="true"
     id="namedview"
     guidetolerance="10"
     gridtolerance="10"
     objecttolerance="10">
    <inkscape:grid
       id="grid"
       type="xygrid" />
  </sodipodi:namedview>
  <g
     inkscape:label="00385"
     id="format-indent-more">
    <title
       id="title43170">format-indent-more</title>
    <path
       style="opacity:0;fill:none"
       d="M 0,0 H 16 V 16 H 0 Z"
       id="indent"
       inkscape:connector-curvature="0" />
    <path
       style="opacity:0;fill:none"
       d="M 0,0 H 16 V 16 H 0 Z"
       id="gtk-indent"
       inkscape:connector-curvature="0" />
    <path
       style="opacity:0.5"
       d="m 8,3 h 5 V 5 H 8 Z"
       id="rect43174"
       inkscape:connector-curvature="0" />
    <path
       style="opacity:0.5"
       d="m 8,7 h 6 V 9 H 8 Z"
       id="rect43176"
       inkscape:connector-curvature="0" />
    <path
       style="opacity:1"
       d="m 2,11 h 7 v 2 H 2 Z"
       id="rect43178"
       inkscape:connector-curvature="0" />
    <path
       class="success"
       id="path43180"
       style="opacity:1"
       d="M 2,3 V 4 C 2,4.25689 2.12983,4.52846 2.3125,4.71875 L 3.593552,6 2.312302,7.28125 C 2.129632,7.47154 2,7.74311 2,8 V 9 H 3 C 3.30945,9 3.55232,8.9097 3.75,8.71875 L 6.406052,6 3.749802,3.28125 C 3.552122,3.0903 3.309252,3 3,3 Z"
       inkscape:connector-curvature="0" />
  </g>
</svg>
