<?xml version="1.0" encoding="UTF-8" standalone="no"?>
<svg
   xmlns:dc="http://purl.org/dc/elements/1.1/"
   xmlns:cc="http://creativecommons.org/ns#"
   xmlns:rdf="http://www.w3.org/1999/02/22-rdf-syntax-ns#"
   xmlns:svg="http://www.w3.org/2000/svg"
   xmlns="http://www.w3.org/2000/svg"
   xmlns:sodipodi="http://sodipodi.sourceforge.net/DTD/sodipodi-0.dtd"
   xmlns:inkscape="http://www.inkscape.org/namespaces/inkscape"
   inkscape:version="1.0beta2 (7cf281c, 2019-12-21)"
   sodipodi:docname="hamburger-menu-symbolic.svg"
   viewBox="0 0 16 16"
   height="16"
   width="16"
   id="svg1"
   version="1.1">
  <style
     id="s0">
.base { fill:#000000; }
.success { fill:#009909; }
.warning { fill:#FF1990; }
.error { fill:#00AAFF; }
.dark { }
</style>
  <style
     id="s2">
@import '../../highlights.css';
</style>
  <metadata
     id="metadata66">
    <rdf:RDF>
      <cc:Work
         rdf:about="">
        <dc:format>image/svg+xml</dc:format>
        <dc:type
           rdf:resource="http://purl.org/dc/dcmitype/StillImage" />
      </cc:Work>
    </rdf:RDF>
  </metadata>
  <defs
     id="defs64" />
  <sodipodi:namedview
     inkscape:snap-global="false"
     inkscape:current-layer="svg1"
     inkscape:window-maximized="1"
     inkscape:window-y="-6"
     inkscape:window-x="65"
     inkscape:window-height="890"
     inkscape:window-width="1296"
     inkscape:cy="8.3823758"
     inkscape:cx="15.064524"
     inkscape:zoom="38.41879"
     showgrid="true"
     id="namedview"
     guidetolerance="10"
     gridtolerance="10"
     objecttolerance="10">
    <inkscape:grid
       id="grid"
       type="xygrid" />
  </sodipodi:namedview>
  <g
     id="distribute-remove-overlaps"
     inkscape:label="00292"
     transform="matrix(0.727273,0,0,0.666667,-840.72727,-548.90812)">
    <path
       style="opacity:0;fill:none"
       d="m 1156,823.36218 h 22 v 24 h -22 z"
       id="rect19455"
       inkscape:connector-curvature="0" />
    <rect
       style="fill:#000000;stroke-width:1.40152"
       id="rect49"
       width="19.466267"
       height="5.7222209"
       x="1157.2463"
       y="824.76483" />
    <rect
       y="840.1908"
       x="1157.2463"
       height="5.7222209"
       width="19.466267"
       id="rect51"
       style="fill:#000000;stroke-width:1.40152" />
    <rect
       style="fill:#000000;stroke-width:1.40152"
       id="rect53"
       width="19.466267"
       height="5.7222209"
       x="1157.2463"
       y="832.47784" />
  </g>
</svg>
