<?xml version="1.0" encoding="UTF-8" standalone="no"?>
<svg
   xmlns:dc="http://purl.org/dc/elements/1.1/"
   xmlns:cc="http://creativecommons.org/ns#"
   xmlns:rdf="http://www.w3.org/1999/02/22-rdf-syntax-ns#"
   xmlns:svg="http://www.w3.org/2000/svg"
   xmlns="http://www.w3.org/2000/svg"
   xmlns:sodipodi="http://sodipodi.sourceforge.net/DTD/sodipodi-0.dtd"
   xmlns:inkscape="http://www.inkscape.org/namespaces/inkscape"
   inkscape:version="1.0beta0 (1d85f8e, 2019-09-11)"
   sodipodi:docname="node-join-segment-symbolic.svg"
   viewBox="0 0 16 16"
   height="16"
   width="16"
   id="svg1"
   version="1.1">
<style id="s0">
   .base    { fill: #000000; }
   .success { fill: #009909; }
   .warning { fill: #FF1990; }
   .error   { fill: #00AAFF; }
   .dark    {  }
  </style>
  <style id="s2"> 
     @import '../../highlights.css'; 
  </style>
   
  <metadata
     id="metadata3242">
    <rdf:RDF>
      <cc:Work
         rdf:about="">
        <dc:format>image/svg+xml</dc:format>
        <dc:type
           rdf:resource="http://purl.org/dc/dcmitype/StillImage" />
      </cc:Work>
    </rdf:RDF>
  </metadata>
  <defs
     id="defs3240" />
  <sodipodi:namedview
     inkscape:current-layer="node-join-segment"
     inkscape:window-maximized="1"
     inkscape:window-y="-8"
     inkscape:window-x="54"
     inkscape:window-height="1177"
     inkscape:window-width="1858"
     inkscape:cy="13.071183"
     inkscape:cx="11.297073"
     inkscape:zoom="38.41879"
     showgrid="true"
     id="namedview"
     guidetolerance="10"
     gridtolerance="10"
     objecttolerance="10">
    <inkscape:grid
       id="grid"
       type="xygrid" />
  </sodipodi:namedview>
  <g
     id="node-join-segment"
     inkscape:label="00167"
     transform="translate(-528,-558.36218)">
    <path
       style="opacity:0;fill:none"
       d="m 528,558.36218 h 16 v 16 h -16 z"
       id="rect19608"
       inkscape:connector-curvature="0" />
    <path
       style="opacity:1"
       d="m 530,570.36218 h 4 v 4 h -4 z"
       id="rect19610"
       inkscape:connector-curvature="0" />
    <path
       class="success"
       inkscape:connector-curvature="0"
       id="path19612"
       d="m 535,563.3622 h 2 l 0.006,3.0058 h 2 l -3,2.9883 -3,-2.9883 h 2 z"
       style="opacity:1" />
    <path
       style="opacity:1"
       d="m 538,570.36218 h 4 v 4 h -4 z"
       id="rect19614"
       inkscape:connector-curvature="0" />
    <path
       style="opacity:1"
       d="m 541,559.36218 h 3 v 1.00001 h -3 z"
       id="rect19616"
       inkscape:connector-curvature="0" />
    <path
       style="opacity:1"
       d="m 528,559.36218 h 3 v 1 h -3 z"
       id="rect19618"
       inkscape:connector-curvature="0" />
    <path
       style="opacity:1"
       d="m 530,558.36218 h 4 v 4 h -4 z"
       id="rect19620"
       inkscape:connector-curvature="0" />
    <path
       style="opacity:1"
       d="m 538,558.36218 h 4 v 4 h -4 z"
       id="rect19622"
       inkscape:connector-curvature="0" />
    <path
       inkscape:connector-curvature="0"
       id="path3816"
       d="m 528,571.36218 h 6 v 1 h -6 z"
       style="opacity:1;stroke-width:0.612372" />
    <path
       inkscape:connector-curvature="0"
       id="path3818"
       d="m 538,571.36218 h 6 v 1 h -6 z"
       style="opacity:1;stroke-width:0.612372" />
    <path
       class="success"
       style="opacity:1;stroke-width:0.707106"
       d="m 534,571.36218 h 4 v 2 h -4 z"
       id="rect19624"
       inkscape:connector-curvature="0" />
  </g>
</svg>
