<?xml version="1.0" encoding="UTF-8" standalone="no"?>
<!-- Created with Inkscape (http://www.inkscape.org/) -->

<svg xmlns:dc="http://purl.org/dc/elements/1.1/" xmlns:cc="http://creativecommons.org/ns#" xmlns:rdf="http://www.w3.org/1999/02/22-rdf-syntax-ns#" xmlns:svg="http://www.w3.org/2000/svg" xmlns="http://www.w3.org/2000/svg" xmlns:sodipodi="http://sodipodi.sourceforge.net/DTD/sodipodi-0.dtd" xmlns:inkscape="http://www.inkscape.org/namespaces/inkscape" version="1.1" width="249.50522" height="249.50523" id="svg2" sodipodi:docname="out-of-gamut-icon-symbolic.svg" inkscape:version="0.92.4 (5da689c313, 2019-01-14)">
<style id="s0">
.base { fill:#000000; }
.success { fill:#009909; }
.warning { fill:#FF1990; }
.error { fill:#00AAFF; }
.dark { }
</style>
<style id="s2">
@import '../../highlights.css';
</style> 


<metadata id="metadata8">
<rdf:RDF>
<cc:Work rdf:about="">
<dc:format>image/svg+xml</dc:format>
<dc:type rdf:resource="http://purl.org/dc/dcmitype/StillImage" />
</cc:Work>
</rdf:RDF>
</metadata>
<sodipodi:namedview pagecolor="#ffffff" bordercolor="#666666" borderopacity="1" objecttolerance="10" gridtolerance="10" guidetolerance="10" inkscape:pageopacity="0" inkscape:pageshadow="2" inkscape:window-width="862" inkscape:window-height="480" id="namedview6" showgrid="false" inkscape:zoom="0.9458719" inkscape:cx="124.7526" inkscape:cy="124.7526" inkscape:window-x="0" inkscape:window-y="27" inkscape:window-maximized="0" inkscape:current-layer="svg2" />
<defs id="defs4" />
<g transform="translate(-218.10454,-476.18098)" id="layer1">
<path style="color:#000000;font-style:normal;font-variant:normal;font-weight:normal;font-stretch:normal;font-size:medium;line-height:normal;font-family:sans-serif;font-variant-ligatures:normal;font-variant-position:normal;font-variant-caps:normal;font-variant-numeric:normal;font-variant-alternates:normal;font-feature-settings:normal;text-indent:0;text-align:start;text-decoration:none;text-decoration-line:none;text-decoration-style:solid;text-decoration-color:#000000;letter-spacing:normal;word-spacing:normal;text-transform:none;writing-mode:lr-tb;direction:ltr;text-orientation:mixed;dominant-baseline:auto;baseline-shift:baseline;text-anchor:start;white-space:normal;shape-padding:0;clip-rule:nonzero;display:inline;overflow:visible;visibility:visible;opacity:1;isolation:auto;mix-blend-mode:normal;color-interpolation:sRGB;color-interpolation-filters:linearRGB;solid-color:#000000;solid-opacity:1;vector-effect:none;fill-opacity:1;fill-rule:evenodd;stroke:none;stroke-width:8.8608036;stroke-linecap:round;stroke-linejoin:round;stroke-miterlimit:4;stroke-dasharray:none;stroke-dashoffset:0;stroke-opacity:1;color-rendering:auto;image-rendering:auto;shape-rendering:auto;text-rendering:auto;enable-background:accumulate" d="m 342.8573,484.6392 c -64.1754,0 -116.2952,52.119 -116.2952,116.2944 0,64.1754 52.1198,116.2944 116.2952,116.2944 64.1753,0 116.2944,-52.119 116.2944,-116.2944 0,-64.1754 -52.1191,-116.2944 -116.2944,-116.2944 z m 0,8.8608 c 59.3865,0 107.4336,48.0469 107.4336,107.4336 0,59.3866 -48.0471,107.4336 -107.4336,107.4336 -59.3867,0 -107.4344,-48.047 -107.4344,-107.4336 0,-59.3867 48.0477,-107.4336 107.4344,-107.4336 z m 0,58.6991 c -26.8629,0 -48.7345,21.8717 -48.7345,48.7345 0,26.8627 21.8716,48.7344 48.7345,48.7344 26.8627,0 48.7344,-21.8717 48.7344,-48.7344 0,-26.8628 -21.8717,-48.7345 -48.7344,-48.7345 z m 0,8.8609 c 22.074,0 39.8736,17.7995 39.8736,39.8736 0,22.0741 -17.7996,39.8736 -39.8736,39.8736 -22.0741,0 -39.8737,-17.7995 -39.8737,-39.8736 0,-22.0741 17.7996,-39.8736 39.8737,-39.8736 z" id="path2818" inkscape:connector-curvature="0" />
</g>
<path d="M 15.559445,1.9999999 14.960894,1.6853226 14.362342,1.9999998 14.476655,1.3335029 13.992417,0.86148717 14.661618,0.7642466 14.960893,0.1578476 15.260169,0.76424666 15.92937,0.86148718 15.445132,1.3335029 Z" class="error" id="tofix" />
</svg>
