<?xml version="1.0" encoding="UTF-8" standalone="no"?>
<svg
   xmlns:dc="http://purl.org/dc/elements/1.1/"
   xmlns:cc="http://creativecommons.org/ns#"
   xmlns:rdf="http://www.w3.org/1999/02/22-rdf-syntax-ns#"
   xmlns:svg="http://www.w3.org/2000/svg"
   xmlns="http://www.w3.org/2000/svg"
   xmlns:sodipodi="http://sodipodi.sourceforge.net/DTD/sodipodi-0.dtd"
   xmlns:inkscape="http://www.inkscape.org/namespaces/inkscape"
   version="1.1"
   id="svg1"
   width="16"
   height="16"
   viewBox="0 0 16 16"
   sodipodi:docname="perspective-envelope-symbolic.svg"
   inkscape:version="1.0beta2 (7cf281c, 2019-12-21)">
  <defs
     id="defs481" />
  <style
     id="s0">.base { fill:#000000; }
.success { fill:#009909; }
.warning { fill:#FF1990; }
.error { fill:#00AAFF; }
.dark {  }
</style>
  <style
     id="s2">
@import '../../highlights.css';
</style>
  <sodipodi:namedview
     objecttolerance="10"
     gridtolerance="10"
     guidetolerance="10"
     id="namedview"
     showgrid="true"
     inkscape:zoom="27.166187"
     inkscape:cx="5.9561449"
     inkscape:cy="8.9906751"
     inkscape:window-x="65"
     inkscape:window-y="-6"
     inkscape:window-width="1296"
     inkscape:window-height="890"
     inkscape:window-maximized="1"
     inkscape:current-layer="layercompo">
    <inkscape:grid
       type="xygrid"
       id="grid" />
  </sodipodi:namedview>
  <metadata
     id="metadata1906">
    <rdf:RDF>
      <cc:Work
         rdf:about="">
        <dc:format>image/svg+xml</dc:format>
        <dc:type
           rdf:resource="http://purl.org/dc/dcmitype/StillImage" />
        <cc:license
           rdf:resource="http://creativecommons.org/publicdomain/zero/1.0/" />
        <dc:title />
        <dc:date>13 Jan 2019</dc:date>
        <dc:creator>
          <cc:Agent>
            <dc:title>Ramón Miranda</dc:title>
          </cc:Agent>
        </dc:creator>
        <dc:rights>
          <cc:Agent>
            <dc:title>see the license tab</dc:title>
          </cc:Agent>
        </dc:rights>
        <dc:subject>
          <rdf:Bag>
            <rdf:li>icon ui</rdf:li>
          </rdf:Bag>
        </dc:subject>
        <dc:description>This is a contribution with Inkscape Project from
Ramon Miranda www.ramonmiranda.com (design and SVG file)
Jabiertxo (SVG stuff to integrate them in UI)</dc:description>
        <dc:publisher>
          <cc:Agent>
            <dc:title />
          </cc:Agent>
        </dc:publisher>
        <dc:identifier />
        <dc:source />
        <dc:relation />
        <dc:language>-</dc:language>
        <dc:coverage />
        <dc:contributor>
          <cc:Agent>
            <dc:title>Ramon Miranda
Jabier Arraiza</dc:title>
          </cc:Agent>
        </dc:contributor>
      </cc:Work>
      <cc:License
         rdf:about="http://creativecommons.org/publicdomain/zero/1.0/">
        <cc:permits
           rdf:resource="http://creativecommons.org/ns#Reproduction" />
        <cc:permits
           rdf:resource="http://creativecommons.org/ns#Distribution" />
        <cc:permits
           rdf:resource="http://creativecommons.org/ns#DerivativeWorks" />
      </cc:License>
    </rdf:RDF>
  </metadata>
  <g
     inkscape:groupmode="layer"
     id="layercompo"
     inkscape:label="perspective-envelope">
    <path
       inkscape:connector-curvature="0"
       id="rect22048"
       d="M 0,0 H 16 V 16 H 0 Z"
       style="opacity:0;fill:none" />
    <path
       inkscape:connector-curvature="0"
       id="path9610"
       d="m 1.6284563,1.2644603 v 0.238219 1.429331 H 2.2454326 V 12.620925 H 1.6284563 v 0.23822 1.429331 H 3.296007 v -0.743513 l 9.658239,-2.13142 v 0.358265 h 1.66755 V 10.104257 H 14.094632 V 5.4556653 h 0.527164 v -1.667559 h -1.66755 v 0.238228 0.14748 l -9.658239,-2.13142 v -0.777934 z m 0.476447,0.476438 h 0.7146658 v 0.714666 H 2.1049033 Z m 1.1911037,0.787703 6.3729195,1.406994 -1.6186966,2.399918 -5.3279094,0.185646 V 2.9320103 H 3.296007 Z m 6.5534435,1.447015 3.1047955,0.685359 v 0.79469 h 0.663948 v 1.58984 l -2.336631,-0.474106 z m 3.5812335,0.288937 h 0.714666 v 0.714666 H 13.430684 Z M 2.7223205,6.6830723 6.741394,9.1522913 5.8945816,12.483683 3.296007,13.056892 V 12.620925 H 2.7223205 Z m 10.8958735,0.594602 v 2.8265827 h -0.663948 v 0.238219 0.583906 l -0.532738,0.117732 -0.382467,-2.2472967 z m -3.8622735,2.8154097 2.4092085,1.007321 -5.7991965,1.27951 z m 3.6747635,0.487611 h 0.714666 v 0.714666 H 13.430684 Z M 2.1049033,13.097372 h 0.7146658 v 0.714666 H 2.1049033 Z"
       style="opacity:1" />
  </g>
</svg>
