<?xml version="1.0" encoding="UTF-8" standalone="no"?>
<svg
   xmlns:dc="http://purl.org/dc/elements/1.1/"
   xmlns:cc="http://creativecommons.org/ns#"
   xmlns:rdf="http://www.w3.org/1999/02/22-rdf-syntax-ns#"
   xmlns:svg="http://www.w3.org/2000/svg"
   xmlns="http://www.w3.org/2000/svg"
   xmlns:sodipodi="http://sodipodi.sourceforge.net/DTD/sodipodi-0.dtd"
   xmlns:inkscape="http://www.inkscape.org/namespaces/inkscape"
   inkscape:version="1.1-dev (6039630, 2019-12-20)"
   sodipodi:docname="selection-top-symbolic.svg"
   viewBox="0 0 16 16"
   height="16"
   width="16"
   id="svg1"
   version="1.1">
  <metadata
     id="metadata6113">
    <rdf:RDF>
      <cc:Work
         rdf:about="">
        <dc:format>image/svg+xml</dc:format>
        <dc:type
           rdf:resource="http://purl.org/dc/dcmitype/StillImage" />
      </cc:Work>
    </rdf:RDF>
  </metadata>
  <defs
     id="defs6111" />
  <style
     id="s0">.base { fill:#000000; }
.success { fill:#009909; }
.warning { fill:#FF1990; }
.error { fill:#00AAFF; }
.dark {  }
</style>
  <style
     id="s2">
@import '../../highlights.css';
</style>
  <sodipodi:namedview
     inkscape:current-layer="svg1"
     inkscape:window-maximized="1"
     inkscape:window-y="-6"
     inkscape:window-x="65"
     inkscape:window-height="890"
     inkscape:window-width="1296"
     inkscape:cy="8"
     inkscape:cx="8"
     inkscape:zoom="22.627417"
     showgrid="true"
     id="namedview"
     guidetolerance="10"
     gridtolerance="10"
     objecttolerance="10">
    <inkscape:grid
       id="grid"
       type="xygrid" />
  </sodipodi:namedview>
  <g
     id="selection-top"
     inkscape:label="00062"
     transform="translate(-135,-667.36218)">
    <path
       style="opacity:0;fill:none"
       d="m 135,667.36218 h 16 v 16 h -16 z"
       id="rect12171"
       inkscape:connector-curvature="0" />
    <path
       style="opacity:0.5"
       d="m 136,672.36218 h 5 v 2 h -5 z"
       id="rect12173"
       inkscape:connector-curvature="0" />
    <path
       style="opacity:1"
       d="m 136,668.36218 h 13 v 2 h -13 z"
       id="rect12175"
       inkscape:connector-curvature="0" />
    <path
       style="opacity:0.5"
       d="m 136,676.36218 h 5 v 2 h -5 z"
       id="rect12177"
       inkscape:connector-curvature="0" />
    <path
       style="opacity:0.5"
       d="m 136,680.36218 h 5 v 2 h -5 z"
       id="rect12179"
       inkscape:connector-curvature="0" />
    <path
       class="success"
       inkscape:connector-curvature="0"
       id="path12181"
       d="m 145,682.3622 h 2 v -7 h 2 l -3,-2.9883 -3,2.9883 h 2 z"
       style="opacity:1" />
  </g>
</svg>
