<?xml version="1.0" encoding="UTF-8" standalone="no"?>
<svg
   xmlns:dc="http://purl.org/dc/elements/1.1/"
   xmlns:cc="http://creativecommons.org/ns#"
   xmlns:rdf="http://www.w3.org/1999/02/22-rdf-syntax-ns#"
   xmlns:svg="http://www.w3.org/2000/svg"
   xmlns="http://www.w3.org/2000/svg"
   xmlns:sodipodi="http://sodipodi.sourceforge.net/DTD/sodipodi-0.dtd"
   xmlns:inkscape="http://www.inkscape.org/namespaces/inkscape"
   inkscape:version="1.1-dev (6039630, 2019-12-20)"
   sodipodi:docname="text-unkern-symbolic.svg"
   viewBox="0 0 16 16"
   height="16"
   width="16"
   id="svg1"
   version="1.1">
  <metadata
     id="metadata5176">
    <rdf:RDF>
      <cc:Work
         rdf:about="">
        <dc:format>image/svg+xml</dc:format>
        <dc:type
           rdf:resource="http://purl.org/dc/dcmitype/StillImage" />
      </cc:Work>
    </rdf:RDF>
  </metadata>
  <defs
     id="defs5174" />
  <style
     id="s0">.base { fill:#000000; }
.success { fill:#009909; }
.warning { fill:#FF1990; }
.error { fill:#00AAFF; }
.dark {  }
</style>
  <style
     id="s2">
@import '../../highlights.css';
</style>
  <sodipodi:namedview
     inkscape:current-layer="text-unkern"
     inkscape:window-maximized="1"
     inkscape:window-y="-6"
     inkscape:window-x="65"
     inkscape:window-height="890"
     inkscape:window-width="1296"
     inkscape:cy="8"
     inkscape:cx="8"
     inkscape:zoom="41.125"
     showgrid="true"
     id="namedview"
     guidetolerance="10"
     gridtolerance="10"
     objecttolerance="10">
    <inkscape:grid
       id="grid"
       type="xygrid" />
  </sodipodi:namedview>
  <g
     id="text-unkern"
     inkscape:label="00097"
     transform="matrix(1,0,0,0.999999,-195,-627.3614)">
    <path
       style="opacity:0;fill:none"
       d="m 195,627.36218 h 16 v 16 h -16 z"
       id="rect18414"
       inkscape:connector-curvature="0" />
    <path
       style="opacity:1"
       d="m 196,628.3622 v 3 l 1,-1 h 2 v 5 l -1,1 h 4 l -1,-1 v -5 h 2 l 1,1 v -3 z"
       id="path18418"
       inkscape:connector-curvature="0" />
    <path
       style="opacity:1"
       d="m 196,633.36218 h 1 v 8.00001 h -1 z"
       id="rect18422"
       inkscape:connector-curvature="0" />
    <path
       style="opacity:1"
       d="m 203,633.36218 h 1 v 8.00001 h -1 z"
       id="rect18427"
       inkscape:connector-curvature="0" />
    <path
       style="opacity:0.5"
       d="m 198,640.36218 h 4 v 1 h -4 z"
       id="rect18436"
       inkscape:connector-curvature="0" />
    <path
       class="warning"
       style="opacity:1"
       d="m 211,638.3622 h -2 l -4,5 h 2 z"
       id="path18432"
       inkscape:connector-curvature="0" />
    <path
       class="warning"
       inkscape:connector-curvature="0"
       id="path18430"
       d="m 205,638.3622 h 2 l 4,5 h -2 z"
       style="opacity:1" />
  </g>
</svg>
