<?xml version="1.0" encoding="UTF-8" standalone="no"?>
<svg
   xmlns:dc="http://purl.org/dc/elements/1.1/"
   xmlns:cc="http://creativecommons.org/ns#"
   xmlns:rdf="http://www.w3.org/1999/02/22-rdf-syntax-ns#"
   xmlns:svg="http://www.w3.org/2000/svg"
   xmlns="http://www.w3.org/2000/svg"
   xmlns:sodipodi="http://sodipodi.sourceforge.net/DTD/sodipodi-0.dtd"
   xmlns:inkscape="http://www.inkscape.org/namespaces/inkscape"
   version="1.1"
   id="svg1"
   width="16"
   height="16"
   viewBox="0 0 16 16"
   sodipodi:docname="tool-node-editor-symbolic.svg"
   inkscape:version="1.0beta0 (1d85f8e, 2019-09-11)">
<style id="s0">
   .base    { fill: #000000; }
   .success { fill: #009909; }
   .warning { fill: #FF1990; }
   .error   { fill: #00AAFF; }
   .dark    {  }
  </style>
  <style id="s2"> 
     @import '../../highlights.css'; 
  </style>
   
  <metadata
     id="metadata1609">
    <rdf:RDF>
      <cc:Work
         rdf:about="">
        <dc:format>image/svg+xml</dc:format>
        <dc:type
           rdf:resource="http://purl.org/dc/dcmitype/StillImage" />
      </cc:Work>
    </rdf:RDF>
  </metadata>
  <defs
     id="defs1607" />
  <sodipodi:namedview
     objecttolerance="10"
     gridtolerance="10"
     guidetolerance="10"
     id="namedview"
     showgrid="true"
     inkscape:zoom="38.418792"
     inkscape:cx="5.0766418"
     inkscape:cy="7.2211282"
     inkscape:window-width="1858"
     inkscape:window-height="1177"
     inkscape:window-x="54"
     inkscape:window-y="-8"
     inkscape:window-maximized="1"
     inkscape:current-layer="g0"
     inkscape:snap-global="true"
     inkscape:snap-nodes="true"
     inkscape:snap-grids="false"
     inkscape:snap-others="true">
    <inkscape:grid
       type="xygrid"
       id="grid" />
  </sodipodi:namedview>
  <g
     id="g0"
     inkscape:label="tool-node-editor">
    <path
       inkscape:connector-curvature="0"
       style="opacity:0"
       d="M 0,0 H 16 V 16 H 0 Z"
       id="background" />
    <path
       class="base"
       style="opacity:0.5"
       d="M 2.7881092,6.9742141 C 1.6562076,8.737253 1.010247,11.353519 1.010247,14 h 0.738755 c 0,-2.185846 0.6040408,-4.7520142 1.6513346,-6.5076436 z"
       id="path974"
       inkscape:connector-curvature="0"
       sodipodi:nodetypes="ccccc" />
    <path
       class="base"
       style="opacity:0.5"
       d="M 6.8681394,2.9120755 7.8285209,3.2032319 C 9.5102748,2.2732697 11.944523,1.7387588 14,1.7387588 v -0.738755 c -2.437892,0 -5.2110977,0.6996444 -7.1318606,1.9120717 z"
       id="path976"
       inkscape:connector-curvature="0"
       sodipodi:nodetypes="ccccc" />
    <path
       class="base"
       inkscape:label="node"
       inkscape:connector-curvature="0"
       id="path980"
       d="M 8,8 H 2 V 2 H 8 Z M 3.9972386,6.0086899 6.0027615,6.0178925 5.9762375,4.0352724 H 4.0237626 Z"
       sodipodi:nodetypes="cccccccccc" />
    <path
       class="base"
       sodipodi:nodetypes="ccccc"
       inkscape:connector-curvature="0"
       d="m 10,9 v 6 l 2,-2.5 3,-0.5 z"
       id="polygon984"
       inkscape:label="cursor" />
  </g>
</svg>
