<?xml version="1.0" encoding="UTF-8" standalone="no"?>
<svg
   xmlns:dc="http://purl.org/dc/elements/1.1/"
   xmlns:cc="http://creativecommons.org/ns#"
   xmlns:rdf="http://www.w3.org/1999/02/22-rdf-syntax-ns#"
   xmlns:svg="http://www.w3.org/2000/svg"
   xmlns="http://www.w3.org/2000/svg"
   xmlns:sodipodi="http://sodipodi.sourceforge.net/DTD/sodipodi-0.dtd"
   xmlns:inkscape="http://www.inkscape.org/namespaces/inkscape"
   inkscape:version="1.1-dev (6039630, 2019-12-20)"
   sodipodi:docname="transform-scale-vertical-symbolic.svg"
   viewBox="0 0 16 16"
   height="16"
   width="16"
   id="svg1"
   version="1.1">
  <metadata
     id="metadata13556">
    <rdf:RDF>
      <cc:Work
         rdf:about="">
        <dc:format>image/svg+xml</dc:format>
        <dc:type
           rdf:resource="http://purl.org/dc/dcmitype/StillImage" />
      </cc:Work>
    </rdf:RDF>
  </metadata>
  <defs
     id="defs13554" />
  <style
     id="s0">.base { fill:#000000; }
.success { fill:#009909; }
.warning { fill:#FF1990; }
.error { fill:#00AAFF; }
.dark {  }
</style>
  <style
     id="s2">
@import '../../highlights.css';
</style>
  <sodipodi:namedview
     inkscape:current-layer="transform-scale-vertical"
     inkscape:window-maximized="1"
     inkscape:window-y="-6"
     inkscape:window-x="65"
     inkscape:window-height="890"
     inkscape:window-width="1296"
     inkscape:cy="13.155015"
     inkscape:cx="8"
     inkscape:zoom="41.125"
     showgrid="true"
     id="namedview"
     guidetolerance="10"
     gridtolerance="10"
     objecttolerance="10">
    <inkscape:grid
       id="grid"
       type="xygrid" />
  </sodipodi:namedview>
  <g
     inkscape:label="00241"
     id="transform-scale-vertical"
     transform="matrix(1,0,0,0.999999,-588.01172,-682.36133)">
    <path
       style="opacity:0;fill:none"
       d="m 588.01172,682.36218 h 16 v 16 h -16 z"
       id="rect15612"
       inkscape:connector-curvature="0" />
    <path
       sodipodi:nodetypes="cccccccc"
       class="success"
       inkscape:connector-curvature="0"
       id="path15614"
       d="m 594,688.3622 h -2 v 4.99983 h -2 l 3,4 3,-4 h -2 z"
       style="opacity:1" />
    <path
       sodipodi:nodetypes="sssssssss"
       style="opacity:1"
       d="m 599.01172,687.36218 h 4 c 0.554,0 1,0.446 1,1 v 4 c 0,0.554 -0.446,1 -1,1 h -4 c -0.554,0 -1,-0.446 -1,-1 v -4 c 0,-0.554 0.446,-1 1,-1 z"
       id="rect15616"
       inkscape:connector-curvature="0" />
    <path
       sodipodi:nodetypes="cccccccc"
       class="success"
       style="opacity:1"
       d="m 594,692.3622 h -2 v -5.00019 h -2 l 3,-4 3,4 h -2 z"
       id="path15618"
       inkscape:connector-curvature="0" />
  </g>
</svg>
